TALEs domains sequences alignment with MAFFT • tantale
…
taleAlignConsensus(repeatAlign)
#>>  [1] "186" "62"  "48"  "133" "127" "155" "73"  "149" "157" "152" "51"  "118"
#>> [13] "95"  "178" "94"  "57"  "64"  "177" "115" "26"  "26"  "37"  "50"  "64" 
#>> [25] "94"  "26"  "49"  "245"
taleAlignConsensus(rvdAlign)
#>>  [1] "NTERM" "NN"    "ND"    "NN"    "NI"    "NK"    "NN"    "HD"    "NN"   
#>> [10] "NG"    "NG"    "N*"    "HD"    "N*"    "HD"    "NI"    "NN"    "HD"   
#>> [19] "NG"    "HD"    "HD"    "HD"    "NG"    "NN"    "HD"    "HD"    "NG"   
#>> [28] "CTERM"

Figure out what elements in the TALE alignment corresponds to the
consensus:

matchConsensus(repeatAlign)
#>> # A tibble: 84 × 3
#>>    arrayID            positionInArray matchConsensus
#>>    <fct>                        <int> <chr>         
#>>  1 BAI3-1-1_ROI_00003               1 TRUE          
#>>  2 BAI3_ROI_00004                   1 FALSE         
#>>  3 MAI1_ROI_00004                   1 FALSE         
#>>  4 BAI3-1-1_ROI_00003               2 TRUE          
#>>  5 BAI3_ROI_00004                   2 TRUE          
#>>  6 MAI1_ROI_00004                   2 FALSE         
#>>  7 BAI3-1-1_ROI_00003               3 TRUE          
#>>  8 BAI3_ROI_00004                   3 TRUE          
#>>  9 MAI1_ROI_00004                   3 TRUE          
#>> 10 BAI3-1-1_ROI_00003               4 TRUE          
#>> # ℹ 74 more rows
…
